%YAML 1.1
%TAG !u! tag:unity3d.com,2011:
--- !u!1001 &5142147126811968082
PrefabInstance:
  m_ObjectHideFlags: 0
  serializedVersion: 2
  m_Modification:
    m_TransformParent: {fileID: 0}
    m_Modifications:
    - target: {fileID: 4048916505060618398, guid: 09deec31e379bd24fa2a4e84e8810aa5, type: 3}
      propertyPath: m_LocalPosition.x
      value: 0
      objectReference: {fileID: 0}
    - target: {fileID: 4048916505060618398, guid: 09deec31e379bd24fa2a4e84e8810aa5, type: 3}
      propertyPath: m_LocalPosition.y
      value: 0
      objectReference: {fileID: 0}
    - target: {fileID: 4048916505060618398, guid: 09deec31e379bd24fa2a4e84e8810aa5, type: 3}
      propertyPath: m_LocalPosition.z
      value: 0
      objectReference: {fileID: 0}
    - target: {fileID: 4048916505060618398, guid: 09deec31e379bd24fa2a4e84e8810aa5, type: 3}
      propertyPath: m_LocalRotation.x
      value: 0
      objectReference: {fileID: 0}
    - target: {fileID: 4048916505060618398, guid: 09deec31e379bd24fa2a4e84e8810aa5, type: 3}
      propertyPath: m_LocalRotation.y
      value: 0
      objectReference: {fileID: 0}
    - target: {fileID: 4048916505060618398, guid: 09deec31e379bd24fa2a4e84e8810aa5, type: 3}
      propertyPath: m_LocalRotation.z
      value: 0
      objectReference: {fileID: 0}
    - target: {fileID: 4048916505060618398, guid: 09deec31e379bd24fa2a4e84e8810aa5, type: 3}
      propertyPath: m_LocalRotation.w
      value: 1
      objectReference: {fileID: 0}
    - target: {fileID: 4048916505060618398, guid: 09deec31e379bd24fa2a4e84e8810aa5, type: 3}
      propertyPath: m_RootOrder
      value: 0
      objectReference: {fileID: 0}
    - target: {fileID: 4048916505060618398, guid: 09deec31e379bd24fa2a4e84e8810aa5, type: 3}
      propertyPath: m_LocalEulerAnglesHint.x
      value: 0
      objectReference: {fileID: 0}
    - target: {fileID: 4048916505060618398, guid: 09deec31e379bd24fa2a4e84e8810aa5, type: 3}
      propertyPath: m_LocalEulerAnglesHint.y
      value: 0
      objectReference: {fileID: 0}
    - target: {fileID: 4048916505060618398, guid: 09deec31e379bd24fa2a4e84e8810aa5, type: 3}
      propertyPath: m_LocalEulerAnglesHint.z
      value: 0
      objectReference: {fileID: 0}
    - target: {fileID: 4048916505060618399, guid: 09deec31e379bd24fa2a4e84e8810aa5, type: 3}
      propertyPath: m_Name
      value: Desert
      objectReference: {fileID: 0}
    m_RemovedComponents: []
  m_SourcePrefab: {fileID: 100100000, guid: 09deec31e379bd24fa2a4e84e8810aa5, type: 3}
